<?xml version="1.0" encoding="UTF-8" standalone="no"?>
<!-- Created with Inkscape (http://www.inkscape.org/) -->

<svg
   width="1920"
   height="906"
   viewBox="0 0 507.99998 239.71249"
   version="1.1"
   id="svg94339"
   inkscape:version="1.2 (dc2aedaf03, 2022-05-15)"
   sodipodi:docname="wordpress_ui_dashboard.svg"
   xmlns:inkscape="http://www.inkscape.org/namespaces/inkscape"
   xmlns:sodipodi="http://sodipodi.sourceforge.net/DTD/sodipodi-0.dtd"
   xmlns="http://www.w3.org/2000/svg"
   xmlns:svg="http://www.w3.org/2000/svg">
  <sodipodi:namedview
     id="namedview94341"
     pagecolor="#ffffff"
     bordercolor="#000000"
     borderopacity="0.25"
     inkscape:showpageshadow="true"
     inkscape:pageopacity="0.0"
     inkscape:pagecheckerboard="false"
     inkscape:deskcolor="#d1d1d1"
     inkscape:document-units="px"
     showgrid="false"
     inkscape:zoom="0.67526655"
     inkscape:cx="898.90429"
     inkscape:cy="508.68801"
     inkscape:window-width="1920"
     inkscape:window-height="1019"
     inkscape:window-x="0"
     inkscape:window-y="30"
     inkscape:window-maximized="1"
     inkscape:current-layer="layer1" />
  <defs
     id="defs94336">
    <clipPath
       clipPathUnits="userSpaceOnUse"
       id="clipPath90858">
      <rect
         style="fill:#c3c3c3;fill-opacity:1;stroke:none;stroke-width:0.529167;stroke-linecap:butt;stroke-linejoin:miter;stroke-dasharray:none;stroke-dashoffset:8.29999;stroke-opacity:1"
         id="rect90860"
         width="4.6186762"
         height="4.590518"
         x="-156.79118"
         y="195.31366" />
    </clipPath>
  </defs>
  <g
     inkscape:label="Capa 1"
     inkscape:groupmode="layer"
     id="layer1">
    <g
       id="g93864"
       transform="translate(658.03302,-193.59413)"
       style="display:inline">
      <rect
         style="display:inline;fill:#f0f0f1;fill-opacity:1;stroke:none;stroke-width:0.529167;stroke-linecap:butt;stroke-linejoin:miter;stroke-dasharray:none;stroke-dashoffset:8.29999;stroke-opacity:1"
         id="rect83214"
         width="508"
         height="239.71249"
         x="-658.03302"
         y="193.59415"
         rx="0"
         ry="0" />
      <g
         id="g93778">
        <g
           id="g93723">
          <rect
             style="display:inline;fill:#1d2327;fill-opacity:1;stroke:none;stroke-width:0.538671;stroke-linecap:butt;stroke-linejoin:miter;stroke-dasharray:none;stroke-dashoffset:8.29999;stroke-opacity:1"
             id="rect83374"
             width="42.252926"
             height="239.71249"
             x="-658.03302"
             y="193.59415" />
          <rect
             style="display:inline;fill:#2c3338;fill-opacity:1;stroke:none;stroke-width:0.529167;stroke-linecap:butt;stroke-linejoin:miter;stroke-dasharray:none;stroke-dashoffset:8.29999;stroke-opacity:1"
             id="rect87271"
             width="42.252926"
             height="27.896469"
             x="-658.03302"
             y="205.27359" />
          <rect
             style="display:inline;fill:#2271b1;fill-opacity:1;stroke:none;stroke-width:0.529167;stroke-linecap:butt;stroke-linejoin:miter;stroke-dasharray:none;stroke-dashoffset:8.29999;stroke-opacity:1"
             id="rect87066"
             width="42.252926"
             height="8.8844118"
             x="-658.03302"
             y="205.27359" />
          <text
             xml:space="preserve"
             style="font-style:normal;font-variant:normal;font-weight:normal;font-stretch:normal;font-size:3.70417px;font-family:Roboto;-inkscape-font-specification:Roboto;display:inline;fill:#ffffff;fill-opacity:1;stroke:none;stroke-width:0.529167;stroke-linecap:butt;stroke-linejoin:miter;stroke-dasharray:none;stroke-dashoffset:8.29999;stroke-opacity:1"
             x="-648.50714"
             y="210.93045"
             id="text87486"><tspan
               sodipodi:role="line"
               id="tspan87484"
               style="font-size:3.70417px;fill:#ffffff;stroke-width:0.529167"
               x="-648.50714"
               y="210.93045">Dashboard</tspan></text>
          <text
             xml:space="preserve"
             style="font-style:normal;font-variant:normal;font-weight:normal;font-stretch:normal;font-size:3.43958px;font-family:Roboto;-inkscape-font-specification:Roboto;fill:#ffffff;fill-opacity:1;stroke:none;stroke-width:0.529167;stroke-linecap:butt;stroke-linejoin:miter;stroke-dasharray:none;stroke-dashoffset:8.29999;stroke-opacity:1"
             x="-654.8689"
             y="221.10658"
             id="text87494"><tspan
               sodipodi:role="line"
               id="tspan87492"
               style="font-style:normal;font-variant:normal;font-weight:500;font-stretch:normal;font-size:3.43958px;font-family:Roboto;-inkscape-font-specification:'Roboto Medium';stroke-width:0.529167"
               x="-654.8689"
               y="221.10658">Home</tspan></text>
          <text
             xml:space="preserve"
             style="font-style:normal;font-variant:normal;font-weight:normal;font-stretch:normal;font-size:3.43958px;font-family:Roboto;-inkscape-font-specification:Roboto;fill:#ffffff;fill-opacity:1;stroke:none;stroke-width:0.529167;stroke-linecap:butt;stroke-linejoin:miter;stroke-dasharray:none;stroke-dashoffset:8.29999;stroke-opacity:1"
             x="-654.82214"
             y="228.56218"
             id="text87498"><tspan
               sodipodi:role="line"
               id="tspan87496"
               style="font-style:normal;font-variant:normal;font-weight:normal;font-stretch:normal;font-size:3.43958px;font-family:Roboto;-inkscape-font-specification:Roboto;stroke-width:0.529167"
               x="-654.82214"
               y="228.56218">Updates</tspan></text>
          <text
             xml:space="preserve"
             style="font-style:normal;font-variant:normal;font-weight:normal;font-stretch:normal;font-size:3.70417px;font-family:Roboto;-inkscape-font-specification:Roboto;display:inline;fill:#ffffff;fill-opacity:1;stroke:none;stroke-width:0.529167;stroke-linecap:butt;stroke-linejoin:miter;stroke-dasharray:none;stroke-dashoffset:8.29999;stroke-opacity:1"
             x="-648.50714"
             y="241.62334"
             id="text87899"><tspan
               sodipodi:role="line"
               id="tspan87897"
               style="font-size:3.70417px;fill:#ffffff;stroke-width:0.529167"
               x="-648.50714"
               y="241.62334">Posts</tspan></text>
          <text
             xml:space="preserve"
             style="font-style:normal;font-variant:normal;font-weight:normal;font-stretch:normal;font-size:3.70417px;font-family:Roboto;-inkscape-font-specification:Roboto;display:inline;fill:#ffffff;fill-opacity:1;stroke:none;stroke-width:0.529167;stroke-linecap:butt;stroke-linejoin:miter;stroke-dasharray:none;stroke-dashoffset:8.29999;stroke-opacity:1"
             x="-648.50714"
             y="250.64491"
             id="text87903"><tspan
               sodipodi:role="line"
               id="tspan87901"
               style="font-size:3.70417px;fill:#ffffff;stroke-width:0.529167"
               x="-648.50714"
               y="250.64491">Media</tspan></text>
          <text
             xml:space="preserve"
             style="font-style:normal;font-variant:normal;font-weight:normal;font-stretch:normal;font-size:3.70417px;font-family:Roboto;-inkscape-font-specification:Roboto;display:inline;fill:#ffffff;fill-opacity:1;stroke:none;stroke-width:0.529167;stroke-linecap:butt;stroke-linejoin:miter;stroke-dasharray:none;stroke-dashoffset:8.29999;stroke-opacity:1"
             x="-648.50714"
             y="259.93155"
             id="text87907"><tspan
               sodipodi:role="line"
               id="tspan87905"
               style="font-size:3.70417px;fill:#ffffff;stroke-width:0.529167"
               x="-648.50714"
               y="259.93155">Pages</tspan></text>
          <text
             xml:space="preserve"
             style="font-style:normal;font-variant:normal;font-weight:normal;font-stretch:normal;font-size:3.70417px;font-family:Roboto;-inkscape-font-specification:Roboto;display:inline;fill:#ffffff;fill-opacity:1;stroke:none;stroke-width:0.529167;stroke-linecap:butt;stroke-linejoin:miter;stroke-dasharray:none;stroke-dashoffset:8.29999;stroke-opacity:1"
             x="-648.50714"
             y="268.91522"
             id="text87911"><tspan
               sodipodi:role="line"
               id="tspan87909"
               style="font-size:3.70417px;fill:#ffffff;stroke-width:0.529167"
               x="-648.50714"
               y="268.91522">Comments</tspan></text>
          <text
             xml:space="preserve"
             style="font-style:normal;font-variant:normal;font-weight:normal;font-stretch:normal;font-size:3.70417px;font-family:Roboto;-inkscape-font-specification:Roboto;display:inline;fill:#ffffff;fill-opacity:1;stroke:none;stroke-width:0.529167;stroke-linecap:butt;stroke-linejoin:miter;stroke-dasharray:none;stroke-dashoffset:8.29999;stroke-opacity:1"
             x="-648.50714"
             y="280.80286"
             id="text87915"><tspan
               sodipodi:role="line"
               id="tspan87913"
               style="font-size:3.70417px;fill:#ffffff;stroke-width:0.529167"
               x="-648.50714"
               y="280.80286">Appearance</tspan></text>
          <text
             xml:space="preserve"
             style="font-style:normal;font-variant:normal;font-weight:normal;font-stretch:normal;font-size:3.70417px;font-family:Roboto;-inkscape-font-specification:Roboto;display:inline;fill:#ffffff;fill-opacity:1;stroke:none;stroke-width:0.529167;stroke-linecap:butt;stroke-linejoin:miter;stroke-dasharray:none;stroke-dashoffset:8.29999;stroke-opacity:1"
             x="-648.50714"
             y="289.7952"
             id="text87919"><tspan
               sodipodi:role="line"
               id="tspan87917"
               style="font-size:3.70417px;fill:#ffffff;stroke-width:0.529167"
               x="-648.50714"
               y="289.7952">Plugins</tspan></text>
          <text
             xml:space="preserve"
             style="font-style:normal;font-variant:normal;font-weight:normal;font-stretch:normal;font-size:3.70417px;font-family:Roboto;-inkscape-font-specification:Roboto;display:inline;fill:#ffffff;fill-opacity:1;stroke:none;stroke-width:0.529167;stroke-linecap:butt;stroke-linejoin:miter;stroke-dasharray:none;stroke-dashoffset:8.29999;stroke-opacity:1"
             x="-648.50714"
             y="298.80743"
             id="text87923"><tspan
               sodipodi:role="line"
               id="tspan87921"
               style="font-size:3.70417px;fill:#ffffff;stroke-width:0.529167"
               x="-648.50714"
               y="298.80743">Users</tspan></text>
          <text
             xml:space="preserve"
             style="font-style:normal;font-variant:normal;font-weight:normal;font-stretch:normal;font-size:3.70417px;font-family:Roboto;-inkscape-font-specification:Roboto;display:inline;fill:#ffffff;fill-opacity:1;stroke:none;stroke-width:0.529167;stroke-linecap:butt;stroke-linejoin:miter;stroke-dasharray:none;stroke-dashoffset:8.29999;stroke-opacity:1"
             x="-648.50714"
             y="308.08676"
             id="text87927"><tspan
               sodipodi:role="line"
               id="tspan87925"
               style="font-size:3.70417px;fill:#ffffff;stroke-width:0.529167"
               x="-648.50714"
               y="308.08676">Tools</tspan></text>
          <text
             xml:space="preserve"
             style="font-style:normal;font-variant:normal;font-weight:normal;font-stretch:normal;font-size:3.70417px;font-family:Roboto;-inkscape-font-specification:Roboto;display:inline;fill:#ffffff;fill-opacity:1;stroke:none;stroke-width:0.529167;stroke-linecap:butt;stroke-linejoin:miter;stroke-dasharray:none;stroke-dashoffset:8.29999;stroke-opacity:1"
             x="-648.50714"
             y="317.03555"
             id="text87931"><tspan
               sodipodi:role="line"
               id="tspan87929"
               style="font-size:3.70417px;fill:#ffffff;stroke-width:0.529167"
               x="-648.50714"
               y="317.03555">Settings</tspan></text>
          <text
             xml:space="preserve"
             style="font-style:normal;font-variant:normal;font-weight:normal;font-stretch:normal;font-size:3.43958px;font-family:Roboto;-inkscape-font-specification:Roboto;display:inline;fill:#ffffff;fill-opacity:1;stroke:none;stroke-width:0.529167;stroke-linecap:butt;stroke-linejoin:miter;stroke-dasharray:none;stroke-dashoffset:8.29999;stroke-opacity:1"
             x="-648.46039"
             y="325.91345"
             id="text87935"><tspan
               sodipodi:role="line"
               id="tspan87933"
               style="font-size:3.43958px;fill:#ffffff;stroke-width:0.529167"
               x="-648.46039"
               y="325.91345">Collapse menu</tspan></text>
          <g
             id="g89214"
             transform="matrix(0.26458333,0,0,0.26458333,-655.92736,207.12734)"
             style="fill:#ffffff">
            <path
               d="M 3.76,16 H 16.24 C 17.34,14.63 18,12.89 18,11 18,6.58 14.42,3 10,3 5.58,3 2,6.58 2,11 c 0,1.89 0.66,3.63 1.76,5 z M 10,4 c 0.55,0 1,0.45 1,1 0,0.55 -0.45,1 -1,1 C 9.45,6 9,5.55 9,5 9,4.45 9.45,4 10,4 Z M 6,6 C 6.55,6 7,6.45 7,7 7,7.55 6.55,8 6,8 5.45,8 5,7.55 5,7 5,6.45 5.45,6 6,6 Z m 8,0 c 0.55,0 1,0.45 1,1 0,0.55 -0.45,1 -1,1 C 13.45,8 13,7.55 13,7 13,6.45 13.45,6 14,6 Z M 8.63,11.55 12,7 v 6 c 0,1.1 -0.9,2 -2,2 C 8.9,15 8,14.1 8,13 8,12.43 8.24,11.92 8.63,11.55 Z M 4,10 c 0.55,0 1,0.45 1,1 0,0.55 -0.45,1 -1,1 -0.55,0 -1,-0.45 -1,-1 0,-0.55 0.45,-1 1,-1 z m 12,0 c 0.55,0 1,0.45 1,1 0,0.55 -0.45,1 -1,1 -0.55,0 -1,-0.45 -1,-1 0,-0.55 0.45,-1 1,-1 z m -5,3 c 0,-0.55 -0.45,-1 -1,-1 -0.55,0 -1,0.45 -1,1 0,0.55 0.45,1 1,1 0.55,0 1,-0.45 1,-1 z"
               id="path89212"
               style="fill:#ffffff" />
          </g>
          <g
             id="g91306"
             transform="matrix(0.26458333,0,0,0.26458333,-655.97816,295.17338)"
             style="fill:#ffffff">
            <path
               d="M 10,9.25 C 7.73,9.25 7.27,5.81 7.27,5.81 7,4.02 7.82,2 9.97,2 c 2.16,0 2.98,2.02 2.71,3.81 0,0 -0.41,3.44 -2.68,3.44 z m 0,2.57 2.72,-1.82 c 2.39,0 4.52,2.33 4.52,4.53 v 2.49 c 0,0 -3.65,1.13 -7.24,1.13 -3.65,0 -7.24,-1.13 -7.24,-1.13 v -2.49 c 0,-2.25 1.94,-4.48 4.47,-4.48 z"
               id="path91304"
               style="fill:#ffffff" />
          </g>
          <g
             id="g91323"
             transform="matrix(0.26458333,0,0,0.26458333,-656.0005,304.26742)"
             style="fill:#ffffff">
            <path
               d="m 16.68,9.77 c -1.34,1.34 -3.3,1.67 -4.95,0.99 l -5.41,6.52 c -0.99,0.99 -2.59,0.99 -3.58,0 -0.99,-0.99 -0.99,-2.59 0,-3.57 L 9.26,8.29 C 8.58,6.64 8.91,4.68 10.25,3.34 11.53,2.06 13.37,1.72 14.97,2.28 l -2.89,2.89 2.82,2.82 2.86,-2.87 c 0.53,1.58 0.18,3.39 -1.08,4.65 z M 3.81,16.21 c 0.4,0.39 1.04,0.39 1.43,0 0.4,-0.4 0.4,-1.04 0,-1.43 -0.39,-0.4 -1.03,-0.4 -1.43,0 -0.39,0.39 -0.39,1.03 0,1.43 z"
               id="path91321"
               style="fill:#ffffff" />
          </g>
          <g
             id="g91340"
             transform="matrix(0.26458333,0,0,0.26458333,-655.9417,313.23045)"
             style="fill:#ffffff">
            <path
               d="M 18,16 V 4 C 18,3.45 17.55,3 17,3 H 4 C 3.45,3 3,3.45 3,4 v 12 c 0,0.55 0.45,1 1,1 h 13 c 0.55,0 1,-0.45 1,-1 z M 8,11 h 1 c 0.55,0 1,0.45 1,1 0,0.55 -0.45,1 -1,1 H 8 v 1.5 C 8,14.78 7.78,15 7.5,15 7.22,15 7,14.78 7,14.5 V 13 H 6 C 5.45,13 5,12.55 5,12 5,11.45 5.45,11 6,11 H 7 V 5.5 C 7,5.22 7.22,5 7.5,5 7.78,5 8,5.22 8,5.5 Z M 13,9 H 12 C 11.45,9 11,8.55 11,8 11,7.45 11.45,7 12,7 h 1 V 5.5 C 13,5.22 13.22,5 13.5,5 13.78,5 14,5.22 14,5.5 V 7 h 1 c 0.55,0 1,0.45 1,1 0,0.55 -0.45,1 -1,1 h -1 v 5.5 C 14,14.78 13.78,15 13.5,15 13.22,15 13,14.78 13,14.5 Z"
               id="path91338"
               style="fill:#ffffff" />
          </g>
          <g
             id="g91374"
             transform="matrix(0.26458333,0,0,0.26458333,-655.95507,286.20149)"
             style="fill:#ffffff">
            <path
               d="M 13.11,4.36 9.87,7.6 8,5.73 11.24,2.49 c 0.35,-0.34 1.05,-0.2 1.56,0.32 0.52,0.51 0.66,1.21 0.31,1.55 z m -8,1.77 0.91,-1.12 9.01,9.01 -1.19,0.84 c -0.71,0.71 -2.63,1.16 -3.82,1.16 H 6.14 L 4.9,17.26 c -0.59,0.59 -1.54,0.59 -2.12,0 -0.59,-0.58 -0.59,-1.53 0,-2.12 L 4.02,13.9 v -3.88 c 0,-1.13 0.4,-3.19 1.09,-3.89 z m 7.26,3.97 3.24,-3.24 c 0.34,-0.35 1.04,-0.21 1.55,0.31 0.52,0.51 0.66,1.21 0.31,1.55 l -3.24,3.25 z"
               id="path91372"
               style="fill:#ffffff" />
          </g>
          <g
             id="g91391"
             transform="matrix(0.26458333,0,0,0.26458333,-655.95945,322.23364)"
             style="fill:#ffffff">
            <path
               d="m 10,2.16 c 4.33,0 7.84,3.51 7.84,7.84 0,4.33 -3.51,7.84 -7.84,7.84 C 5.67,17.84 2.16,14.33 2.16,10 2.16,5.67 5.71,2.16 10,2.16 Z m 2,11.72 V 6.12 L 6.18,9.97 Z"
               id="path91389"
               style="fill:#ffffff" />
          </g>
          <g
             id="g91408"
             transform="matrix(0.26458333,0,0,0.26458333,-655.8659,276.95817)"
             style="fill:#ffffff">
            <path
               d="M 14.48,11.06 7.41,3.99 8.91,2.49 c 0.5,-0.56 2.3,-0.47 3.51,0.32 1.21,0.8 1.43,1.28 2.91,2.1 1.18,0.64 2.45,1.26 4.45,0.85 z M 13.77,11.77 6.7,4.7 4.93,6.47 c -0.39,0.39 -0.39,1.02 0,1.41 l 1.06,1.06 c 0.39,0.39 0.39,1.03 0,1.42 -0.6,0.6 -1.43,1.11 -2.21,1.69 -0.35,0.26 -0.7,0.53 -1.01,0.84 -1.34,1.34 -2.37,3.19 -1.37,4.18 0.99,1 2.84,-0.03 4.18,-1.36 0.31,-0.31 0.58,-0.66 0.85,-1.02 0.57,-0.78 1.08,-1.61 1.69,-2.21 0.39,-0.39 1.02,-0.39 1.41,0 l 1.06,1.06 c 0.39,0.39 1.02,0.39 1.41,0 z"
               id="path91406"
               style="fill:#ffffff" />
          </g>
          <g
             id="g91425"
             transform="matrix(0.26458333,0,0,0.26458333,-655.95945,265.04595)"
             style="fill:#ffffff">
            <path
               d="m 5,2 h 9 c 1.1,0 2,0.9 2,2 v 7 c 0,1.1 -0.9,2 -2,2 H 12 L 7,18 V 13 H 5 C 3.9,13 3,12.1 3,11 V 4 C 3,2.9 3.9,2 5,2 Z"
               id="path91423"
               style="fill:#ffffff" />
          </g>
          <g
             id="g91442"
             transform="matrix(0.26458333,0,0,0.26458333,-655.95946,256.0978)"
             style="fill:#ffffff">
            <path
               d="M 6,15 V 2 h 10 v 13 z m -1,1 h 8 v 2 H 3 V 5 h 2 z"
               id="path91440"
               style="fill:#ffffff" />
          </g>
          <g
             id="g91459"
             transform="matrix(0.26458333,0,0,0.26458333,-655.95946,247.02401)"
             style="fill:#ffffff">
            <path
               d="M 13,11 V 4 C 13,3.45 12.55,3 12,3 H 10.33 L 9,1 H 5 L 3.67,3 H 2 C 1.45,3 1,3.45 1,4 v 7 c 0,0.55 0.45,1 1,1 h 10 c 0.55,0 1,-0.45 1,-1 z M 7,4.5 C 8.38,4.5 9.5,5.62 9.5,7 9.5,8.38 8.38,9.5 7,9.5 5.62,9.5 4.5,8.38 4.5,7 4.5,5.62 5.62,4.5 7,4.5 Z M 14,6 h 5 V 16.5 C 19,17.88 17.88,19 16.5,19 15.12,19 14,17.88 14,16.5 14,15.12 15.12,14 16.5,14 c 0.17,0 0.34,0.02 0.5,0.05 V 9 h -3 z m -4,8.05 V 13 h 2 v 3.5 C 12,17.88 10.88,19 9.5,19 8.12,19 7,17.88 7,16.5 7,15.12 8.12,14 9.5,14 c 0.17,0 0.34,0.02 0.5,0.05 z"
               id="path91457"
               style="fill:#ffffff" />
          </g>
          <g
             id="g91476"
             transform="matrix(0.26458333,0,0,0.26458333,-655.86589,238.04372)"
             style="fill:#ffffff">
            <path
               d="M 10.44,3.02 12.26,1.2 18.62,7.55 16.79,9.37 C 15.74,8.69 14.31,8.8 13.38,9.73 l -0.75,0.75 c -0.92,0.93 -1.04,2.35 -0.35,3.41 L 10.45,15.71 8.04,13.3 5.24,16.09 C 4.82,16.51 1.86,18.8 1.44,18.38 1.02,17.96 3.3,14.99 3.72,14.57 L 6.51,11.78 4.1,9.36 5.93,7.54 c 1.05,0.69 2.48,0.57 3.4,-0.36 l 0.75,-0.75 c 0.93,-0.92 1.05,-2.35 0.36,-3.41 z"
               id="path91474"
               style="fill:#ffffff" />
          </g>
        </g>
        <path
           style="display:inline;fill:#f0f0f1;fill-opacity:1;stroke:none;stroke-width:0.529167;stroke-linecap:butt;stroke-linejoin:miter;stroke-dasharray:none;stroke-dashoffset:8.29999;stroke-opacity:1"
           d="m -615.73333,207.6256 -2.03592,2.0902 2.03592,2.11992 z"
           id="path87269" />
      </g>
      <g
         id="g93551">
        <rect
           style="display:inline;fill:#1d2327;fill-opacity:1;stroke:none;stroke-width:1.51173;stroke-linecap:butt;stroke-linejoin:miter;stroke-dasharray:none;stroke-dashoffset:8.29999;stroke-opacity:1"
           id="rect83268"
           width="507.99997"
           height="8.3843231"
           x="-658.03302"
           y="193.59413"
           rx="0"
           ry="0" />
        <rect
           style="fill:#c3c3c3;fill-opacity:1;stroke:none;stroke-width:0.529167;stroke-linecap:butt;stroke-linejoin:miter;stroke-dasharray:none;stroke-dashoffset:8.29999;stroke-opacity:1"
           id="rect90174"
           width="4.6186762"
           height="4.5905175"
           x="-156.79118"
           y="195.31366" />
        <text
           xml:space="preserve"
           style="font-style:normal;font-variant:normal;font-weight:normal;font-stretch:normal;font-size:3.43958px;font-family:Roboto;-inkscape-font-specification:Roboto;display:inline;fill:#ffffff;fill-opacity:1;stroke:none;stroke-width:0.529167;stroke-linecap:butt;stroke-linejoin:miter;stroke-dasharray:none;stroke-dashoffset:8.29999;stroke-opacity:1"
           x="-640.04388"
           y="199.17024"
           id="text88356"><tspan
             sodipodi:role="line"
             id="tspan88354"
             style="font-size:3.43958px;fill:#ffffff;stroke-width:0.529167"
             x="-640.04388"
             y="199.17024">Empty</tspan></text>
        <text
           xml:space="preserve"
           style="font-style:normal;font-variant:normal;font-weight:normal;font-stretch:normal;font-size:3.43958px;font-family:Roboto;-inkscape-font-specification:Roboto;display:inline;fill:#ffffff;fill-opacity:1;stroke:none;stroke-width:0.529167;stroke-linecap:butt;stroke-linejoin:miter;stroke-dasharray:none;stroke-dashoffset:8.29999;stroke-opacity:1"
           x="-606.77148"
           y="199.17024"
           id="text88360"><tspan
             sodipodi:role="line"
             id="tspan88358"
             style="font-size:3.43958px;fill:#ffffff;stroke-width:0.529167"
             x="-606.77148"
             y="199.17024">New</tspan></text>
        <text
           xml:space="preserve"
           style="font-style:normal;font-variant:normal;font-weight:normal;font-stretch:normal;font-size:3.43958px;font-family:Roboto;-inkscape-font-specification:Roboto;display:inline;fill:#ffffff;fill-opacity:1;stroke:none;stroke-width:0.529167;stroke-linecap:butt;stroke-linejoin:miter;stroke-dasharray:none;stroke-dashoffset:8.29999;stroke-opacity:1"
           x="-619.55457"
           y="199.17024"
           id="text88785"><tspan
             sodipodi:role="line"
             id="tspan88783"
             style="font-size:3.43958px;fill:#ffffff;stroke-width:0.529167"
             x="-619.55457"
             y="199.17024">0</tspan></text>
        <g
           id="g89234"
           transform="matrix(0.26458333,0,0,0.26458333,-656.2205,195.13524)"
           style="fill:#ffffff">
          <path
             d="M 20,10 C 20,4.48 15.52,0 10,0 4.48,0 0,4.48 0,10 0,15.52 4.48,20 10,20 15.52,20 20,15.52 20,10 Z M 10,1.01 c 4.97,0 8.99,4.02 8.99,8.99 0,4.97 -4.02,8.99 -8.99,8.99 C 5.03,18.99 1.01,14.97 1.01,10 1.01,5.03 5.03,1.01 10,1.01 Z M 8.01,14.82 4.96,6.61 C 5.45,6.58 6.01,6.53 6.01,6.53 6.44,6.48 6.39,5.52 5.95,5.54 c 0,0 -1.29,0.1 -2.13,0.1 -0.15,0 -0.33,0 -0.52,-0.01 1.44,-2.17 3.9,-3.6 6.7,-3.6 2.09,0 3.99,0.79 5.41,2.09 -0.6,-0.08 -1.45,0.35 -1.45,1.42 0,0.66 0.38,1.22 0.79,1.88 0.31,0.54 0.5,1.22 0.5,2.21 0,1.34 -1.27,4.48 -1.27,4.48 l -2.71,-7.5 c 0.48,-0.03 0.75,-0.16 0.75,-0.16 0.43,-0.05 0.38,-1.1 -0.05,-1.08 0,0 -1.3,0.11 -2.14,0.11 C 9.05,5.48 7.72,5.37 7.72,5.37 7.29,5.35 7.24,6.43 7.67,6.45 l 0.84,0.08 1.12,3.04 z m 6.02,2.15 2.61,-6.97 c 0,0 0.67,-1.69 0.39,-3.81 0.63,1.14 0.94,2.42 0.94,3.81 0,2.96 -1.56,5.58 -3.94,6.97 z M 2.68,6.77 6.5,17.25 C 3.83,15.95 2.03,13.17 2.03,10 2.03,8.84 2.23,7.77 2.68,6.77 Z m 7.45,4.53 2.29,6.25 c -0.75,0.27 -1.57,0.42 -2.42,0.42 -0.72,0 -1.41,-0.11 -2.06,-0.3 z"
             id="path89232"
             style="fill:#ffffff" />
        </g>
        <g
           id="g89681"
           transform="matrix(0.26458333,0,0,0.26458333,-646.92265,195.16263)"
           style="fill:#ffffff">
          <path
             d="m 16,8.5 1.53,1.53 -1.06,1.06 L 10,4.62 3.53,11.09 2.47,10.03 10,2.5 l 4,4 v -2 h 2 z m -6,-2.46 6,5.99 V 18 H 4 V 12.03 Z M 12,17 V 12 H 8 v 5 z"
             id="path89679"
             style="fill:#ffffff" />
        </g>
        <g
           id="g89701"
           transform="matrix(0.26458333,0,0,0.26458333,-626.35638,195.48883)"
           style="fill:#ffffff">
          <path
             d="m 5,2 h 9 c 1.1,0 2,0.9 2,2 v 7 c 0,1.1 -0.9,2 -2,2 H 12 L 7,18 V 13 H 5 C 3.9,13 3,12.1 3,11 V 4 C 3,2.9 3.9,2 5,2 Z"
             id="path89699"
             style="fill:#ffffff" />
        </g>
        <g
           id="g89721"
           transform="matrix(0.26458333,0,0,0.26458333,-613.67985,195.71542)"
           style="fill:#ffffff">
          <path
             d="m 17,7 v 3 h -5 v 5 H 9 V 10 H 4 V 7 H 9 V 2 h 3 v 5 z"
             id="path89719"
             style="fill:#ffffff" />
        </g>
        <text
           xml:space="preserve"
           style="font-style:normal;font-variant:normal;font-weight:normal;font-stretch:normal;font-size:3.43958px;font-family:Roboto;-inkscape-font-specification:Roboto;display:inline;fill:#ffffff;fill-opacity:1;stroke:none;stroke-width:0.529167;stroke-linecap:butt;stroke-linejoin:miter;stroke-dasharray:none;stroke-dashoffset:8.29999;stroke-opacity:1"
           x="-179.98242"
           y="199.17024"
           id="text90172"><tspan
             sodipodi:role="line"
             id="tspan90170"
             style="font-size:3.43958px;fill:#ffffff;stroke-width:0.529167"
             x="-179.98242"
             y="199.17024">Howdy, admin</tspan></text>
        <path
           id="path90851"
           style="display:inline;fill:#ffffff;fill-opacity:1;stroke:none;stroke-width:0.529167;stroke-linecap:butt;stroke-linejoin:miter;stroke-dasharray:none;stroke-dashoffset:8.29999;stroke-opacity:1"
           d="m -154.47274,196.26398 a 0.91341829,0.94203085 0 0 0 -0.91312,0.94206 0.91341829,0.94203085 0 0 0 0.35243,0.74311 1.7310786,1.7853043 0 0 0 -1.16995,1.68775 1.7310786,1.7853043 0 0 0 1.73064,1.78542 1.7310786,1.7853043 0 0 0 1.73116,-1.78542 1.7310786,1.7853043 0 0 0 -1.16943,-1.68878 0.91341829,0.94203085 0 0 0 0.35191,-0.74208 0.91341829,0.94203085 0 0 0 -0.91364,-0.94206 z"
           clip-path="url(#clipPath90858)" />
      </g>
      <g
         id="g93618">
        <text
           xml:space="preserve"
           style="font-style:normal;font-variant:normal;font-weight:normal;font-stretch:normal;font-size:3.43958px;font-family:Roboto;-inkscape-font-specification:Roboto;display:inline;fill:#72777d;fill-opacity:1;stroke:none;stroke-width:0.529167;stroke-linecap:butt;stroke-linejoin:miter;stroke-dasharray:none;stroke-dashoffset:8.29999;stroke-opacity:1"
           x="-610.44641"
           y="429.05566"
           id="text91521"><tspan
             sodipodi:role="line"
             id="tspan91519"
             style="font-style:italic;font-variant:normal;font-weight:normal;font-stretch:normal;font-size:3.43958px;font-family:Roboto;-inkscape-font-specification:'Roboto Italic';fill:#72777d;fill-opacity:1;stroke-width:0.529167"
             x="-610.44641"
             y="429.05566">Thank you for creating with </tspan></text>
        <text
           xml:space="preserve"
           style="font-style:normal;font-variant:normal;font-weight:normal;font-stretch:normal;font-size:3.43958px;font-family:Roboto;-inkscape-font-specification:Roboto;display:inline;fill:#2271b1;fill-opacity:1;stroke:none;stroke-width:0.529167;stroke-linecap:butt;stroke-linejoin:miter;stroke-dasharray:none;stroke-dashoffset:8.29999;stroke-opacity:1"
           x="-569.20923"
           y="429.05566"
           id="text92386"><tspan
             sodipodi:role="line"
             id="tspan92384"
             style="font-style:italic;font-variant:normal;font-weight:normal;font-stretch:normal;font-size:3.43958px;font-family:Roboto;-inkscape-font-specification:'Roboto Italic';fill:#2271b1;fill-opacity:1;stroke-width:0.529167"
             x="-569.20923"
             y="429.05566">WordPress</tspan></text>
        <path
           style="fill:#2271b1;fill-opacity:1;stroke:#2271b1;stroke-width:0.264583;stroke-linecap:butt;stroke-linejoin:miter;stroke-dasharray:none;stroke-dashoffset:8.29999;stroke-opacity:1"
           d="m -569.04569,429.4741 h 15.94868"
           id="path92802" />
        <text
           xml:space="preserve"
           style="font-style:normal;font-variant:normal;font-weight:normal;font-stretch:normal;font-size:3.43958px;font-family:Roboto;-inkscape-font-specification:Roboto;display:inline;fill:#72777d;fill-opacity:1;stroke:none;stroke-width:0.529167;stroke-linecap:butt;stroke-linejoin:miter;stroke-dasharray:none;stroke-dashoffset:8.29999;stroke-opacity:1"
           x="-172.49791"
           y="429.05566"
           id="text93427"><tspan
             sodipodi:role="line"
             id="tspan93425"
             style="font-style:normal;font-variant:normal;font-weight:normal;font-stretch:normal;font-size:3.43958px;font-family:Roboto;-inkscape-font-specification:Roboto;fill:#72777d;fill-opacity:1;stroke-width:0.529167"
             x="-172.49791"
             y="429.05566">Version 6.1</tspan></text>
      </g>
    </g>
  </g>
</svg>
